%YAML 1.1
%TAG !u! tag:unity3d.com,2011:
--- !u!74 &7400000
AnimationClip:
  m_ObjectHideFlags: 0
  m_PrefabParentObject: {fileID: 0}
  m_PrefabInternal: {fileID: 0}
  m_Name: walking
  serializedVersion: 6
  m_Legacy: 0
  m_Compressed: 0
  m_UseHighQualityCurve: 1
  m_RotationCurves: []
  m_CompressedRotationCurves: []
  m_EulerCurves: []
  m_PositionCurves: []
  m_ScaleCurves:
  - curve:
      serializedVersion: 2
      m_Curve:
      - serializedVersion: 2
        time: 0
        value: {x: 0.25, y: 0.25, z: 0.15}
        inSlope: {x: 0, y: 0, z: 0}
        outSlope: {x: 0, y: 0, z: 0}
        tangentMode: 0
      - serializedVersion: 2
        time: 0.46666667
        value: {x: 0.165625, y: 0.18347657, z: 0.15}
        inSlope: {x: -0.06696428, y: 0, z: 0}
        outSlope: {x: -0.06696428, y: 0, z: 0}
        tangentMode: 0
      - serializedVersion: 2
        time: 0.93333334
        value: {x: 0.15, y: 0.18347657, z: 0.15}
        inSlope: {x: 0, y: 0, z: 0}
        outSlope: {x: 0, y: 0, z: 0}
        tangentMode: 0
      m_PreInfinity: 2
      m_PostInfinity: 2
      m_RotationOrder: 4
    path: 
  m_FloatCurves: []
  m_PPtrCurves:
  - curve:
    - time: 0
      value: {fileID: 21300000, guid: db8692c84ab9d1b48bd23f7e65206e1f, type: 3}
    - time: 0.033333335
      value: {fileID: 21300000, guid: 81178ebc1a352b841a7e01afab6a6360, type: 3}
    - time: 0.06666667
      value: {fileID: 21300000, guid: 07be25628e10851419988142a0e8b171, type: 3}
    - time: 0.1
      value: {fileID: 21300000, guid: cad0b88667639ef43ab6bcd833a6ae6a, type: 3}
    - time: 0.13333334
      value: {fileID: 21300000, guid: 10d502c3c41b2c646bda74fe160e2457, type: 3}
    - time: 0.16666667
      value: {fileID: 21300000, guid: 16075a4707c0b154d9a2660d036e9be7, type: 3}
    - time: 0.2
      value: {fileID: 21300000, guid: 783b4f9f30ad187469b9356d378432c4, type: 3}
    - time: 0.23333333
      value: {fileID: 21300000, guid: c0a8576bebc037d4aae208f9b94738ab, type: 3}
    - time: 0.26666668
      value: {fileID: 21300000, guid: de7fb752b199963489c96fad49f7aec6, type: 3}
    - time: 0.3
      value: {fileID: 21300000, guid: 90ce3444f1a607540b8ce20d1e2e3587, type: 3}
    - time: 0.33333334
      value: {fileID: 21300000, guid: 6bdcf86f105cc3d4fb6ac9c65879d146, type: 3}
    - time: 0.36666667
      value: {fileID: 21300000, guid: a6daeddc53e94444b96ca4c784cc6571, type: 3}
    - time: 0.4
      value: {fileID: 21300000, guid: d6f65e8354db6f74698964eabde615c4, type: 3}
    - time: 0.43333334
      value: {fileID: 21300000, guid: 107e4ada5968adf4b826aa35314fe204, type: 3}
    - time: 0.46666667
      value: {fileID: 21300000, guid: 01b90c80d1b83bd439b298eefb2b0d68, type: 3}
    - time: 0.5
      value: {fileID: 21300000, guid: 3aa4910e0d8ff1248926977d77404f5c, type: 3}
    - time: 0.53333336
      value: {fileID: 21300000, guid: 867e4cb9844877f4d91bfe2e04f6d255, type: 3}
    - time: 0.56666666
      value: {fileID: 21300000, guid: 09f03492bd7133e48b82af17e5fdf32b, type: 3}
    - time: 0.6
      value: {fileID: 21300000, guid: 5615d0955c171864a8759f3dfd6555f1, type: 3}
    - time: 0.6333333
      value: {fileID: 21300000, guid: 58af99037393a4249945535b17f913ec, type: 3}
    - time: 0.6666667
      value: {fileID: 21300000, guid: 75074966c7ac6e1429c4f6d6161f0f92, type: 3}
    - time: 0.7
      value: {fileID: 21300000, guid: 5c6896e522d078a44b4cba50c53cce59, type: 3}
    - time: 0.73333335
      value: {fileID: 21300000, guid: 4ca736f77db35d14ea6c28186997f1a2, type: 3}
    - time: 0.76666665
      value: {fileID: 21300000, guid: 8dc3bb2a4805e2041b2d524ae55ddea0, type: 3}
    - time: 0.8
      value: {fileID: 21300000, guid: 6b6c912afdba1844bb75d3af6a0abccb, type: 3}
    - time: 0.8333333
      value: {fileID: 21300000, guid: 6ff5a6c70f0df1b45945001ca994738d, type: 3}
    - time: 0.8666667
      value: {fileID: 21300000, guid: ae4ed80fb3c75cc4daa767f4a2c60b41, type: 3}
    - time: 0.9
      value: {fileID: 21300000, guid: aa5d5b39f1538aa4ea0aa6a62809bd7c, type: 3}
    - time: 0.93333334
      value: {fileID: 21300000, guid: 9a7e289e3e59fc94fb4a4c3f76dbd772, type: 3}
    - time: 0.96666664
      value: {fileID: 21300000, guid: 52496eebce6c3314a970ed972c53ba85, type: 3}
    - time: 1
      value: {fileID: 21300000, guid: e17953bf6839ba146a2f61a721950090, type: 3}
    - time: 1.0333333
      value: {fileID: 21300000, guid: 34e75bf31e1385c4d8653c6ab8e40909, type: 3}
    - time: 1.0666667
      value: {fileID: 21300000, guid: 9a3f178b002f53048a532b834b069d9a, type: 3}
    - time: 1.1
      value: {fileID: 21300000, guid: 1580ec2fe325a9b4e83638d76565bb45, type: 3}
    attribute: m_Sprite
    path: 
    classID: 212
    script: {fileID: 0}
  m_SampleRate: 30
  m_WrapMode: 0
  m_Bounds:
    m_Center: {x: 0, y: 0, z: 0}
    m_Extent: {x: 0, y: 0, z: 0}
  m_ClipBindingConstant:
    genericBindings:
    - serializedVersion: 2
      path: 0
      attribute: 3
      script: {fileID: 0}
      typeID: 4
      customType: 0
      isPPtrCurve: 0
    - serializedVersion: 2
      path: 0
      attribute: 0
      script: {fileID: 0}
      typeID: 212
      customType: 23
      isPPtrCurve: 1
    pptrCurveMapping:
    - {fileID: 21300000, guid: db8692c84ab9d1b48bd23f7e65206e1f, type: 3}
    - {fileID: 21300000, guid: 81178ebc1a352b841a7e01afab6a6360, type: 3}
    - {fileID: 21300000, guid: 07be25628e10851419988142a0e8b171, type: 3}
    - {fileID: 21300000, guid: cad0b88667639ef43ab6bcd833a6ae6a, type: 3}
    - {fileID: 21300000, guid: 10d502c3c41b2c646bda74fe160e2457, type: 3}
    - {fileID: 21300000, guid: 16075a4707c0b154d9a2660d036e9be7, type: 3}
    - {fileID: 21300000, guid: 783b4f9f30ad187469b9356d378432c4, type: 3}
    - {fileID: 21300000, guid: c0a8576bebc037d4aae208f9b94738ab, type: 3}
    - {fileID: 21300000, guid: de7fb752b199963489c96fad49f7aec6, type: 3}
    - {fileID: 21300000, guid: 90ce3444f1a607540b8ce20d1e2e3587, type: 3}
    - {fileID: 21300000, guid: 6bdcf86f105cc3d4fb6ac9c65879d146, type: 3}
    - {fileID: 21300000, guid: a6daeddc53e94444b96ca4c784cc6571, type: 3}
    - {fileID: 21300000, guid: d6f65e8354db6f74698964eabde615c4, type: 3}
    - {fileID: 21300000, guid: 107e4ada5968adf4b826aa35314fe204, type: 3}
    - {fileID: 21300000, guid: 01b90c80d1b83bd439b298eefb2b0d68, type: 3}
    - {fileID: 21300000, guid: 3aa4910e0d8ff1248926977d77404f5c, type: 3}
    - {fileID: 21300000, guid: 867e4cb9844877f4d91bfe2e04f6d255, type: 3}
    - {fileID: 21300000, guid: 09f03492bd7133e48b82af17e5fdf32b, type: 3}
    - {fileID: 21300000, guid: 5615d0955c171864a8759f3dfd6555f1, type: 3}
    - {fileID: 21300000, guid: 58af99037393a4249945535b17f913ec, type: 3}
    - {fileID: 21300000, guid: 75074966c7ac6e1429c4f6d6161f0f92, type: 3}
    - {fileID: 21300000, guid: 5c6896e522d078a44b4cba50c53cce59, type: 3}
    - {fileID: 21300000, guid: 4ca736f77db35d14ea6c28186997f1a2, type: 3}
    - {fileID: 21300000, guid: 8dc3bb2a4805e2041b2d524ae55ddea0, type: 3}
    - {fileID: 21300000, guid: 6b6c912afdba1844bb75d3af6a0abccb, type: 3}
    - {fileID: 21300000, guid: 6ff5a6c70f0df1b45945001ca994738d, type: 3}
    - {fileID: 21300000, guid: ae4ed80fb3c75cc4daa767f4a2c60b41, type: 3}
    - {fileID: 21300000, guid: aa5d5b39f1538aa4ea0aa6a62809bd7c, type: 3}
    - {fileID: 21300000, guid: 9a7e289e3e59fc94fb4a4c3f76dbd772, type: 3}
    - {fileID: 21300000, guid: 52496eebce6c3314a970ed972c53ba85, type: 3}
    - {fileID: 21300000, guid: e17953bf6839ba146a2f61a721950090, type: 3}
    - {fileID: 21300000, guid: 34e75bf31e1385c4d8653c6ab8e40909, type: 3}
    - {fileID: 21300000, guid: 9a3f178b002f53048a532b834b069d9a, type: 3}
    - {fileID: 21300000, guid: 1580ec2fe325a9b4e83638d76565bb45, type: 3}
  m_AnimationClipSettings:
    serializedVersion: 2
    m_AdditiveReferencePoseClip: {fileID: 0}
    m_AdditiveReferencePoseTime: 0
    m_StartTime: 0
    m_StopTime: 1.1333333
    m_OrientationOffsetY: 0
    m_Level: 0
    m_CycleOffset: 0
    m_HasAdditiveReferencePose: 0
    m_LoopTime: 1
    m_LoopBlend: 0
    m_LoopBlendOrientation: 0
    m_LoopBlendPositionY: 0
    m_LoopBlendPositionXZ: 0
    m_KeepOriginalOrientation: 0
    m_KeepOriginalPositionY: 1
    m_KeepOriginalPositionXZ: 0
    m_HeightFromFeet: 0
    m_Mirror: 0
  m_EditorCurves:
  - curve:
      serializedVersion: 2
      m_Curve:
      - serializedVersion: 2
        time: 0
        value: 0.25
        inSlope: 0
        outSlope: 0
        tangentMode: 136
      - serializedVersion: 2
        time: 0.46666667
        value: 0.165625
        inSlope: -0.06696428
        outSlope: -0.06696428
        tangentMode: 136
      - serializedVersion: 2
        time: 0.93333334
        value: 0.15
        inSlope: 0
        outSlope: 0
        tangentMode: 136
      m_PreInfinity: 2
      m_PostInfinity: 2
      m_RotationOrder: 4
    attribute: m_LocalScale.x
    path: 
    classID: 4
    script: {fileID: 0}
  - curve:
      serializedVersion: 2
      m_Curve:
      - serializedVersion: 2
        time: 0
        value: 0.25
        inSlope: 0
        outSlope: 0
        tangentMode: 136
      - serializedVersion: 2
        time: 0.46666667
        value: 0.18347657
        inSlope: 0
        outSlope: 0
        tangentMode: 136
      m_PreInfinity: 2
      m_PostInfinity: 2
      m_RotationOrder: 4
    attribute: m_LocalScale.y
    path: 
    classID: 4
    script: {fileID: 0}
  - curve:
      serializedVersion: 2
      m_Curve:
      - serializedVersion: 2
        time: 0
        value: 0.15
        inSlope: 0
        outSlope: 0
        tangentMode: 136
      - serializedVersion: 2
        time: 0.46666667
        value: 0.15
        inSlope: 0
        outSlope: 0
        tangentMode: 136
      m_PreInfinity: 2
      m_PostInfinity: 2
      m_RotationOrder: 4
    attribute: m_LocalScale.z
    path: 
    classID: 4
    script: {fileID: 0}
  m_EulerEditorCurves: []
  m_HasGenericRootTransform: 0
  m_HasMotionFloatCurves: 0
  m_GenerateMotionCurves: 0
  m_Events: []
